{
  "required": true,
  "minVersion": "0.8",
  "package": "net.sssubtlety.discontinuous_beacon_beams.mixin",
  "compatibilityLevel": "JAVA_16",
  "client": [
    "BeaconBlockEntityMixin",
    "BeaconBlockEntityRendererMixin",
    "BeamSegmentMixin"
  ],
  "injectors": {
    "defaultRequire": 1
  }
}
